{
  "status": 200,
  "response": {
    "_id": "5646",
    "mal_id": "9253",
    "title": "Steins;Gate",
    "year": "2011",
    "slug": "steins-gate",
    "synopsis": "Steins;Gate is set in the summer of 2010, approximately one year after the events that took place in Chaos;Head, in Akihabara.\n\nSteins;Gate is about a group of friends who have customized their microwave into a device that can send emails to the past (known as D-mails). As they perform different experiments, an organization named SERN, who has been doing their own research on time travel, tracks them down and now the characters have to find a way to avoid being captured by them.\n\n(Sources: VNDB, Wikipedia)",
    "runtime": "24",
    "status": "Finished Airing",
    "type": "show",
    "last_updated": 1481642558808,
    "__v": 0,
    "num_seasons": 1,
    "episodes": [{
      "tvdb_id": "5646-1-13",
      "overview": "We still don't have single episode overviews for anime… Sorry",
      "episode": "13",
      "season": "1",
      "torrents": {
        "0": {
          "provider": "HorribleSubs",
          "peers": 0,
          "seeds": 0,
          "url": "magnet:?xt=urn:btih:IEQGMZOUZJQ5FJJZNURKTTND3KUHBAHT&tr=http://open.nyaatorrents.info:6544/announce&tr=udp://open.demonii.com:1337/announce&tr=udp://tracker.openbittorrent.com:80/announce"
        },
        "720p": {
          "provider": "HorribleSubs",
          "peers": 0,
          "seeds": 0,
          "url": "magnet:?xt=urn:btih:MCZBSUZP4YX2O4SBMBBXLFWBIQCEPOZF&tr=http://open.nyaatorrents.info:6544/announce&tr=udp://open.demonii.com:1337/announce&tr=udp://tracker.openbittorrent.com:80/announce"
        },
        "480p": {
          "provider": "HorribleSubs",
          "peers": 0,
          "seeds": 0,
          "url": "magnet:?xt=urn:btih:IEQGMZOUZJQ5FJJZNURKTTND3KUHBAHT&tr=http://open.nyaatorrents.info:6544/announce&tr=udp://open.demonii.com:1337/announce&tr=udp://tracker.openbittorrent.com:80/announce"
        }
      },
      "title": "Episode 13"
    }, {
      "tvdb_id": "5646-1-14",
      "overview": "We still don't have single episode overviews for anime… Sorry",
      "episode": "14",
      "season": "1",
      "torrents": {
        "0": {
          "provider": "HorribleSubs",
          "peers": 0,
          "seeds": 0,
          "url": "magnet:?xt=urn:btih:JVIRHLYBUD3OU2VFCSFBUYPDDO7IYC6B&tr=http://open.nyaatorrents.info:6544/announce&tr=udp://open.demonii.com:1337/announce&tr=udp://tracker.openbittorrent.com:80/announce"
        },
        "480p": {
          "provider": "HorribleSubs",
          "peers": 0,
          "seeds": 0,
          "url": "magnet:?xt=urn:btih:JVIRHLYBUD3OU2VFCSFBUYPDDO7IYC6B&tr=http://open.nyaatorrents.info:6544/announce&tr=udp://open.demonii.com:1337/announce&tr=udp://tracker.openbittorrent.com:80/announce"
        }
      },
      "title": "Episode 14"
    }, {
      "tvdb_id": "5646-1-15",
      "overview": "We still don't have single episode overviews for anime… Sorry",
      "episode": "15",
      "season": "1",
      "torrents": {
        "0": {
          "provider": "HorribleSubs",
          "peers": 0,
          "seeds": 0,
          "url": "magnet:?xt=urn:btih:6NOS6S62J5O6P3LTQKA3WFLK3V2A4YX3&tr=http://open.nyaatorrents.info:6544/announce&tr=udp://open.demonii.com:1337/announce&tr=udp://tracker.openbittorrent.com:80/announce"
        },
        "720p": {
          "provider": "HorribleSubs",
          "peers": 0,
          "seeds": 0,
          "url": "magnet:?xt=urn:btih:VC7KZPT7RK7Y56JZBFFZQCZSKR5O3VQD&tr=http://open.nyaatorrents.info:6544/announce&tr=udp://open.demonii.com:1337/announce&tr=udp://tracker.openbittorrent.com:80/announce"
        },
        "480p": {
          "provider": "HorribleSubs",
          "peers": 0,
          "seeds": 0,
          "url": "magnet:?xt=urn:btih:6NOS6S62J5O6P3LTQKA3WFLK3V2A4YX3&tr=http://open.nyaatorrents.info:6544/announce&tr=udp://open.demonii.com:1337/announce&tr=udp://tracker.openbittorrent.com:80/announce"
        }
      },
      "title": "Episode 15"
    }, {
      "tvdb_id": "5646-1-16",
      "overview": "We still don't have single episode overviews for anime… Sorry",
      "episode": "16",
      "season": "1",
      "torrents": {
        "0": {
          "provider": "HorribleSubs",
          "peers": 0,
          "seeds": 0,
          "url": "magnet:?xt=urn:btih:RWS3OEVDSJ4DV7TLWF3NRUFWHR6YPCYX&tr=http://open.nyaatorrents.info:6544/announce&tr=udp://open.demonii.com:1337/announce&tr=udp://tracker.openbittorrent.com:80/announce"
        },
        "720p": {
          "provider": "HorribleSubs",
          "peers": 0,
          "seeds": 0,
          "url": "magnet:?xt=urn:btih:6MNNOMJDQ346KEQJNV4MZP6R7DCZJ76D&tr=http://open.nyaatorrents.info:6544/announce&tr=udp://open.demonii.com:1337/announce&tr=udp://tracker.openbittorrent.com:80/announce"
        },
        "480p": {
          "provider": "HorribleSubs",
          "peers": 0,
          "seeds": 0,
          "url": "magnet:?xt=urn:btih:RWS3OEVDSJ4DV7TLWF3NRUFWHR6YPCYX&tr=http://open.nyaatorrents.info:6544/announce&tr=udp://open.demonii.com:1337/announce&tr=udp://tracker.openbittorrent.com:80/announce"
        }
      },
      "title": "Episode 16"
    }, {
      "tvdb_id": "5646-1-17",
      "overview": "We still don't have single episode overviews for anime… Sorry",
      "episode": "17",
      "season": "1",
      "torrents": {
        "0": {
          "provider": "HorribleSubs",
          "peers": 0,
          "seeds": 0,
          "url": "magnet:?xt=urn:btih:3N33Z5RI3U5EVGCC2CWGR6DSWM5B2PQQ&tr=http://open.nyaatorrents.info:6544/announce&tr=udp://open.demonii.com:1337/announce&tr=udp://tracker.openbittorrent.com:80/announce"
        },
        "720p": {
          "provider": "HorribleSubs",
          "peers": 0,
          "seeds": 0,
          "url": "magnet:?xt=urn:btih:MXOBQ7RENZTL3P2Z53HC5BBJAH7RWTVT&tr=http://open.nyaatorrents.info:6544/announce&tr=udp://open.demonii.com:1337/announce&tr=udp://tracker.openbittorrent.com:80/announce"
        },
        "480p": {
          "provider": "HorribleSubs",
          "peers": 0,
          "seeds": 0,
          "url": "magnet:?xt=urn:btih:3N33Z5RI3U5EVGCC2CWGR6DSWM5B2PQQ&tr=http://open.nyaatorrents.info:6544/announce&tr=udp://open.demonii.com:1337/announce&tr=udp://tracker.openbittorrent.com:80/announce"
        }
      },
      "title": "Episode 17"
    }, {
      "tvdb_id": "5646-1-18",
      "overview": "We still don't have single episode overviews for anime… Sorry",
      "episode": "18",
      "season": "1",
      "torrents": {
        "0": {
          "provider": "HorribleSubs",
          "peers": 0,
          "seeds": 0,
          "url": "magnet:?xt=urn:btih:SYUEJKTXFJSDLDTRWMCP7DJ7BTRBDVPF&tr=http://open.nyaatorrents.info:6544/announce&tr=udp://open.demonii.com:1337/announce&tr=udp://tracker.openbittorrent.com:80/announce"
        },
        "720p": {
          "provider": "HorribleSubs",
          "peers": 0,
          "seeds": 0,
          "url": "magnet:?xt=urn:btih:CJF6WLRHGR73NFITX64SEA3LICALSMZ7&tr=http://open.nyaatorrents.info:6544/announce&tr=udp://open.demonii.com:1337/announce&tr=udp://tracker.openbittorrent.com:80/announce"
        },
        "480p": {
          "provider": "HorribleSubs",
          "peers": 0,
          "seeds": 0,
          "url": "magnet:?xt=urn:btih:SYUEJKTXFJSDLDTRWMCP7DJ7BTRBDVPF&tr=http://open.nyaatorrents.info:6544/announce&tr=udp://open.demonii.com:1337/announce&tr=udp://tracker.openbittorrent.com:80/announce"
        }
      },
      "title": "Episode 18"
    }, {
      "tvdb_id": "5646-1-19",
      "overview": "We still don't have single episode overviews for anime… Sorry",
      "episode": "19",
      "season": "1",
      "torrents": {
        "0": {
          "provider": "HorribleSubs",
          "peers": 0,
          "seeds": 0,
          "url": "magnet:?xt=urn:btih:BY275CLUIJYQ4KDDHKNA24ITLKOAJ76W&tr=http://open.nyaatorrents.info:6544/announce&tr=udp://open.demonii.com:1337/announce&tr=udp://tracker.openbittorrent.com:80/announce"
        },
        "720p": {
          "provider": "HorribleSubs",
          "peers": 0,
          "seeds": 0,
          "url": "magnet:?xt=urn:btih:JXCKDQVG6RR3PVQKBZU4WXQDRG44HNUP&tr=http://open.nyaatorrents.info:6544/announce&tr=udp://open.demonii.com:1337/announce&tr=udp://tracker.openbittorrent.com:80/announce"
        },
        "480p": {
          "provider": "HorribleSubs",
          "peers": 0,
          "seeds": 0,
          "url": "magnet:?xt=urn:btih:BY275CLUIJYQ4KDDHKNA24ITLKOAJ76W&tr=http://open.nyaatorrents.info:6544/announce&tr=udp://open.demonii.com:1337/announce&tr=udp://tracker.openbittorrent.com:80/announce"
        }
      },
      "title": "Episode 19"
    }, {
      "tvdb_id": "5646-1-20",
      "overview": "We still don't have single episode overviews for anime… Sorry",
      "episode": "20",
      "season": "1",
      "torrents": {
        "0": {
          "provider": "HorribleSubs",
          "peers": 0,
          "seeds": 0,
          "url": "magnet:?xt=urn:btih:NJ2HWN3FZEPN6EAK3AXZYJHDAU4MXSN3&tr=http://open.nyaatorrents.info:6544/announce&tr=udp://open.demonii.com:1337/announce&tr=udp://tracker.openbittorrent.com:80/announce"
        },
        "720p": {
          "provider": "HorribleSubs",
          "peers": 0,
          "seeds": 0,
          "url": "magnet:?xt=urn:btih:EEINEVV552L46DDJ476YWX2T3VZCRI6U&tr=http://open.nyaatorrents.info:6544/announce&tr=udp://open.demonii.com:1337/announce&tr=udp://tracker.openbittorrent.com:80/announce"
        },
        "480p": {
          "provider": "HorribleSubs",
          "peers": 0,
          "seeds": 0,
          "url": "magnet:?xt=urn:btih:NJ2HWN3FZEPN6EAK3AXZYJHDAU4MXSN3&tr=http://open.nyaatorrents.info:6544/announce&tr=udp://open.demonii.com:1337/announce&tr=udp://tracker.openbittorrent.com:80/announce"
        }
      },
      "title": "Episode 20"
    }, {
      "tvdb_id": "5646-1-21",
      "overview": "We still don't have single episode overviews for anime… Sorry",
      "episode": "21",
      "season": "1",
      "torrents": {
        "0": {
          "provider": "HorribleSubs",
          "peers": 0,
          "seeds": 0,
          "url": "magnet:?xt=urn:btih:CV4SETW6RUZWLMN2TOR3RY7NDZ72C4UF&tr=http://open.nyaatorrents.info:6544/announce&tr=udp://open.demonii.com:1337/announce&tr=udp://tracker.openbittorrent.com:80/announce"
        },
        "720p": {
          "provider": "HorribleSubs",
          "peers": 0,
          "seeds": 0,
          "url": "magnet:?xt=urn:btih:6RJHE5TJQP66IPBKG7Z7CKCV2WSQJK4L&tr=http://open.nyaatorrents.info:6544/announce&tr=udp://open.demonii.com:1337/announce&tr=udp://tracker.openbittorrent.com:80/announce"
        },
        "480p": {
          "provider": "HorribleSubs",
          "peers": 0,
          "seeds": 0,
          "url": "magnet:?xt=urn:btih:CV4SETW6RUZWLMN2TOR3RY7NDZ72C4UF&tr=http://open.nyaatorrents.info:6544/announce&tr=udp://open.demonii.com:1337/announce&tr=udp://tracker.openbittorrent.com:80/announce"
        }
      },
      "title": "Episode 21"
    }, {
      "tvdb_id": "5646-1-22",
      "overview": "We still don't have single episode overviews for anime… Sorry",
      "episode": "22",
      "season": "1",
      "torrents": {
        "0": {
          "provider": "HorribleSubs",
          "peers": 0,
          "seeds": 0,
          "url": "magnet:?xt=urn:btih:W5VIQ4QPZVQMKIA2NMXCCUOXBT5DOUB5&tr=http://open.nyaatorrents.info:6544/announce&tr=udp://open.demonii.com:1337/announce&tr=udp://tracker.openbittorrent.com:80/announce"
        },
        "720p": {
          "provider": "HorribleSubs",
          "peers": 0,
          "seeds": 0,
          "url": "magnet:?xt=urn:btih:3PKY7TBV4RBF4IGV4TOOR6KDRJW7GSTY&tr=http://open.nyaatorrents.info:6544/announce&tr=udp://open.demonii.com:1337/announce&tr=udp://tracker.openbittorrent.com:80/announce"
        },
        "480p": {
          "provider": "HorribleSubs",
          "peers": 0,
          "seeds": 0,
          "url": "magnet:?xt=urn:btih:W5VIQ4QPZVQMKIA2NMXCCUOXBT5DOUB5&tr=http://open.nyaatorrents.info:6544/announce&tr=udp://open.demonii.com:1337/announce&tr=udp://tracker.openbittorrent.com:80/announce"
        }
      },
      "title": "Episode 22"
    }, {
      "tvdb_id": "5646-1-23",
      "overview": "We still don't have single episode overviews for anime… Sorry",
      "episode": "23",
      "season": "1",
      "torrents": {
        "0": {
          "provider": "HorribleSubs",
          "peers": 0,
          "seeds": 0,
          "url": "magnet:?xt=urn:btih:7WBG2TFU5ISZKGBEKIE6QHYLRBMPPJJ4&tr=http://open.nyaatorrents.info:6544/announce&tr=udp://open.demonii.com:1337/announce&tr=udp://tracker.openbittorrent.com:80/announce"
        },
        "720p": {
          "provider": "HorribleSubs",
          "peers": 0,
          "seeds": 0,
          "url": "magnet:?xt=urn:btih:SLRFQYHZMI433YHBAGA2EQDCDFAZATLA&tr=http://open.nyaatorrents.info:6544/announce&tr=udp://open.demonii.com:1337/announce&tr=udp://tracker.openbittorrent.com:80/announce"
        },
        "480p": {
          "provider": "HorribleSubs",
          "peers": 0,
          "seeds": 0,
          "url": "magnet:?xt=urn:btih:7WBG2TFU5ISZKGBEKIE6QHYLRBMPPJJ4&tr=http://open.nyaatorrents.info:6544/announce&tr=udp://open.demonii.com:1337/announce&tr=udp://tracker.openbittorrent.com:80/announce"
        }
      },
      "title": "Episode 23"
    }, {
      "tvdb_id": "5646-1-24",
      "overview": "We still don't have single episode overviews for anime… Sorry",
      "episode": "24",
      "season": "1",
      "torrents": {
        "0": {
          "provider": "HorribleSubs",
          "peers": 0,
          "seeds": 0,
          "url": "magnet:?xt=urn:btih:KPATTMOIG6XKANRS5L3YRIHMADBUPYKA&tr=http://open.nyaatorrents.info:6544/announce&tr=udp://open.demonii.com:1337/announce&tr=udp://tracker.openbittorrent.com:80/announce"
        },
        "720p": {
          "provider": "HorribleSubs",
          "peers": 0,
          "seeds": 0,
          "url": "magnet:?xt=urn:btih:Q5UPWV5KMP3M3KMIPGPELCHLLCGS5USO&tr=http://open.nyaatorrents.info:6544/announce&tr=udp://open.demonii.com:1337/announce&tr=udp://tracker.openbittorrent.com:80/announce"
        },
        "480p": {
          "provider": "HorribleSubs",
          "peers": 0,
          "seeds": 0,
          "url": "magnet:?xt=urn:btih:KPATTMOIG6XKANRS5L3YRIHMADBUPYKA&tr=http://open.nyaatorrents.info:6544/announce&tr=udp://open.demonii.com:1337/announce&tr=udp://tracker.openbittorrent.com:80/announce"
        }
      },
      "title": "Episode 24"
    }, {
      "tvdb_id": "5646-1-1",
      "overview": "We still don't have single episode overviews for anime… Sorry",
      "episode": "1",
      "season": "1",
      "torrents": {
        "0": {
          "provider": "Commie",
          "peers": 0,
          "seeds": 0,
          "url": "https://www.nyaa.se/?page=download&tid=204479"
        },
        "480p": {
          "provider": "Commie",
          "peers": 0,
          "seeds": 0,
          "url": "https://www.nyaa.se/?page=download&tid=204479"
        },
        "720p": {
          "provider": "Commie",
          "peers": 0,
          "seeds": 0,
          "url": "https://www.nyaa.se/?page=download&tid=305096"
        }
      },
      "title": "Episode 1"
    }, {
      "tvdb_id": "5646-1-2",
      "overview": "We still don't have single episode overviews for anime… Sorry",
      "episode": "2",
      "season": "1",
      "torrents": {
        "0": {
          "provider": "Commie",
          "peers": 1,
          "seeds": 0,
          "url": "https://www.nyaa.se/?page=download&tid=206069"
        },
        "480p": {
          "provider": "Commie",
          "peers": 1,
          "seeds": 0,
          "url": "https://www.nyaa.se/?page=download&tid=206069"
        }
      },
      "title": "Episode 2"
    }, {
      "tvdb_id": "5646-1-3",
      "overview": "We still don't have single episode overviews for anime… Sorry",
      "episode": "3",
      "season": "1",
      "torrents": {
        "0": {
          "provider": "Commie",
          "peers": 1,
          "seeds": 0,
          "url": "https://www.nyaa.se/?page=download&tid=207897"
        },
        "480p": {
          "provider": "Commie",
          "peers": 1,
          "seeds": 0,
          "url": "https://www.nyaa.se/?page=download&tid=207897"
        }
      },
      "title": "Episode 3"
    }, {
      "tvdb_id": "5646-1-4",
      "overview": "We still don't have single episode overviews for anime… Sorry",
      "episode": "4",
      "season": "1",
      "torrents": {
        "0": {
          "provider": "Commie",
          "peers": 2,
          "seeds": 0,
          "url": "https://www.nyaa.se/?page=download&tid=211777"
        },
        "480p": {
          "provider": "Commie",
          "peers": 2,
          "seeds": 0,
          "url": "https://www.nyaa.se/?page=download&tid=211777"
        }
      },
      "title": "Episode 4"
    }, {
      "tvdb_id": "5646-1-5",
      "overview": "We still don't have single episode overviews for anime… Sorry",
      "episode": "5",
      "season": "1",
      "torrents": {
        "0": {
          "provider": "Commie",
          "peers": 2,
          "seeds": 0,
          "url": "https://www.nyaa.se/?page=download&tid=211809"
        },
        "480p": {
          "provider": "Commie",
          "peers": 2,
          "seeds": 0,
          "url": "https://www.nyaa.se/?page=download&tid=211809"
        }
      },
      "title": "Episode 5"
    }, {
      "tvdb_id": "5646-1-6",
      "overview": "We still don't have single episode overviews for anime… Sorry",
      "episode": "6",
      "season": "1",
      "torrents": {
        "0": {
          "provider": "Commie",
          "peers": 1,
          "seeds": 0,
          "url": "https://www.nyaa.se/?page=download&tid=214453"
        },
        "480p": {
          "provider": "Commie",
          "peers": 1,
          "seeds": 0,
          "url": "https://www.nyaa.se/?page=download&tid=214453"
        }
      },
      "title": "Episode 6"
    }, {
      "tvdb_id": "5646-1-7",
      "overview": "We still don't have single episode overviews for anime… Sorry",
      "episode": "7",
      "season": "1",
      "torrents": {
        "0": {
          "provider": "Commie",
          "peers": 0,
          "seeds": 0,
          "url": "https://www.nyaa.se/?page=download&tid=215147"
        },
        "480p": {
          "provider": "Commie",
          "peers": 0,
          "seeds": 0,
          "url": "https://www.nyaa.se/?page=download&tid=215147"
        }
      },
      "title": "Episode 7"
    }, {
      "tvdb_id": "5646-1-8",
      "overview": "We still don't have single episode overviews for anime… Sorry",
      "episode": "8",
      "season": "1",
      "torrents": {
        "0": {
          "provider": "Commie",
          "peers": 1,
          "seeds": 0,
          "url": "https://www.nyaa.se/?page=download&tid=216836"
        },
        "480p": {
          "provider": "Commie",
          "peers": 1,
          "seeds": 0,
          "url": "https://www.nyaa.se/?page=download&tid=216836"
        }
      },
      "title": "Episode 8"
    }, {
      "tvdb_id": "5646-1-9",
      "overview": "We still don't have single episode overviews for anime… Sorry",
      "episode": "9",
      "season": "1",
      "torrents": {
        "0": {
          "provider": "Commie",
          "peers": 1,
          "seeds": 0,
          "url": "https://www.nyaa.se/?page=download&tid=218619"
        },
        "480p": {
          "provider": "Commie",
          "peers": 1,
          "seeds": 0,
          "url": "https://www.nyaa.se/?page=download&tid=218619"
        }
      },
      "title": "Episode 9"
    }, {
      "tvdb_id": "5646-1-10",
      "overview": "We still don't have single episode overviews for anime… Sorry",
      "episode": "10",
      "season": "1",
      "torrents": {
        "0": {
          "provider": "Commie",
          "peers": 0,
          "seeds": 0,
          "url": "https://www.nyaa.se/?page=download&tid=221031"
        },
        "480p": {
          "provider": "Commie",
          "peers": 0,
          "seeds": 0,
          "url": "https://www.nyaa.se/?page=download&tid=221031"
        }
      },
      "title": "Episode 10"
    }, {
      "tvdb_id": "5646-1-11",
      "overview": "We still don't have single episode overviews for anime… Sorry",
      "episode": "11",
      "season": "1",
      "torrents": {
        "0": {
          "provider": "Commie",
          "peers": 1,
          "seeds": 0,
          "url": "https://www.nyaa.se/?page=download&tid=221205"
        },
        "480p": {
          "provider": "Commie",
          "peers": 1,
          "seeds": 0,
          "url": "https://www.nyaa.se/?page=download&tid=221205"
        }
      },
      "title": "Episode 11"
    }, {
      "tvdb_id": "5646-1-12",
      "overview": "We still don't have single episode overviews for anime… Sorry",
      "episode": "12",
      "season": "1",
      "torrents": {
        "0": {
          "provider": "Commie",
          "peers": 1,
          "seeds": 0,
          "url": "https://www.nyaa.se/?page=download&tid=224101"
        },
        "480p": {
          "provider": "Commie",
          "peers": 1,
          "seeds": 0,
          "url": "https://www.nyaa.se/?page=download&tid=224101"
        }
      },
      "title": "Episode 12"
    }, {
      "tvdb_id": "5646-1-25",
      "overview": "We still don't have single episode overviews for anime… Sorry",
      "episode": "25",
      "season": "1",
      "torrents": {
        "0": {
          "provider": "Commie",
          "peers": 5,
          "seeds": 0,
          "url": "https://www.nyaa.se/?page=download&tid=289832"
        },
        "720p": {
          "provider": "Commie",
          "peers": 8,
          "seeds": 0,
          "url": "https://www.nyaa.se/?page=download&tid=289832"
        }
      },
      "title": "Episode 25"
    }],
    "genres": ["Comedy", "Sci-Fi", "Mystery", "Thriller", "Drama"],
    "images": {
      "poster": "https://static.hummingbird.me/anime/poster_images/000/005/646/large/iJvXXwfdhJHaG.jpg?1416278953",
      "fanart": "https://static.hummingbird.me/anime/poster_images/000/005/646/large/iJvXXwfdhJHaG.jpg?1416278953",
      "banner": "https://static.hummingbird.me/anime/poster_images/000/005/646/large/iJvXXwfdhJHaG.jpg?1416278953"
    },
    "rating": {
      "percentage": 90,
      "watching": 0,
      "votes": 0,
      "loved": 100,
      "hated": 100
    }
  }
}